[
    {
        "id": 1,
        "date": "December 10, 2020",
        "taskField": "Web Designing",
        "taskName": "Prototyping",
        "progress": 60,
        "partisipants": ["https://images.unsplash.com/photo-1438761681033-6461ffad8d80?ixid=MXwxMjA3fDB8MHxwaG90by1wYWdlfHx8fGVufDB8fHw%3D&ixlib=rb-1.2.1&auto=format&fit=crop&w=2550&q=80", "https://images.unsplash.com/photo-1503023345310-bd7c1de61c7d?ixid=MXwxMjA3fDB8MHxzZWFyY2h8MTB8fG1hbnxlbnwwfHwwfA%3D%3D&ixlib=rb-1.2.1&auto=format&fit=crop&w=900&q=60"],
        "daysLeft": 2
    },
    {
        "id": 2,
        "date": "December 19, 2020",
        "taskField": "Testing",
        "taskName": "Prototyping",
        "progress": 50,
        "partisipants": ["https://images.unsplash.com/photo-1596815064285-45ed8a9c0463?ixid=MXwxMjA3fDB8MHxwaG90by1wYWdlfHx8fGVufDB8fHw%3D&ixlib=rb-1.2.1&auto=format&fit=crop&w=1215&q=80", "https://images.unsplash.com/photo-1583195764036-6dc248ac07d9?ixid=MXwxMjA3fDB8MHxwaG90by1wYWdlfHx8fGVufDB8fHw%3D&ixlib=rb-1.2.1&auto=format&fit=crop&w=2555&q=80"],
        "daysLeft": 5
    },
    {
        "id": 3,
        "date": "December 20, 2020",
        "taskField": "Svg Animations",
        "taskName": "Prototyping",
        "progress": 80,
        "partisipants": ["https://images.unsplash.com/photo-1587628604439-3b9a0aa7a163?ixid=MXwxMjA3fDB8MHxzZWFyY2h8MjR8fHdvbWFufGVufDB8fDB8&ixlib=rb-1.2.1&auto=format&fit=crop&w=900&q=60", "https://images.unsplash.com/photo-1596815064285-45ed8a9c0463?ixid=MXwxMjA3fDB8MHxwaG90by1wYWdlfHx8fGVufDB8fHw%3D&ixlib=rb-1.2.1&auto=format&fit=crop&w=1215&q=80"],
        "daysLeft": 6
    },
    {
        "id": 4,
        "date": "December 22, 2020",
        "taskField": "UI Development",
        "taskName": "Prototyping",
        "progress": 20,
        "partisipants": ["https://images.unsplash.com/photo-1600486913747-55e5470d6f40?ixid=MXwxMjA3fDB8MHxwaG90by1wYWdlfHx8fGVufDB8fHw%3D&ixlib=rb-1.2.1&auto=format&fit=crop&w=2550&q=80", "https://images.unsplash.com/photo-1587628604439-3b9a0aa7a163?ixid=MXwxMjA3fDB8MHxzZWFyY2h8MjR8fHdvbWFufGVufDB8fDB8&ixlib=rb-1.2.1&auto=format&fit=crop&w=900&q=60"],
        "daysLeft": 9
    },
    {
        "id": 5,
        "date": "December 22, 2020",
        "taskField": "Data Analysis",
        "taskName": "Prototyping",
        "progress": 60,
        "partisipants": ["https://images.unsplash.com/photo-1438761681033-6461ffad8d80?ixid=MXwxMjA3fDB8MHxwaG90by1wYWdlfHx8fGVufDB8fHw%3D&ixlib=rb-1.2.1&auto=format&fit=crop&w=2550&q=80", "https://images.unsplash.com/photo-1503023345310-bd7c1de61c7d?ixid=MXwxMjA3fDB8MHxzZWFyY2h8MTB8fG1hbnxlbnwwfHwwfA%3D%3D&ixlib=rb-1.2.1&auto=format&fit=crop&w=900&q=60"],
        "daysLeft": 9
    },
    {
        "id": 6,
        "date": "December 23, 2020",
        "taskField": "Web Designing",
        "taskName": "Prototyping",
        "progress": 40,
        "partisipants": ["https://images.unsplash.com/photo-1600486913747-55e5470d6f40?ixid=MXwxMjA3fDB8MHxwaG90by1wYWdlfHx8fGVufDB8fHw%3D&ixlib=rb-1.2.1&auto=format&fit=crop&w=2550&q=80", "https://images.unsplash.com/photo-1583195764036-6dc248ac07d9?ixid=MXwxMjA3fDB8MHxwaG90by1wYWdlfHx8fGVufDB8fHw%3D&amp;ixlib=rb-1.2.1&amp;auto=format&amp;fit=crop&amp;w=2555&amp;q=80"],
        "daysLeft": 10
    }
]